Getting simulation parameters... DONE
dt = 0.001 s, no. of timesteps = 5, no. of species = 1

Getting species properties... DONE
=== Species 0 ===
no. of particles = 3
mass = 1.67248e-27 kg
charge = 3.20435e-19 C

Initializing particle positions... DONE
Initializing particle velocities... DONE

******** Initial particle positions and velocities ********
==== Species 0 ====
Particle 1: pos = (1, 2, 3), vel = (1, -1, 10)
Particle 2: pos = (2, 3, 4), vel = (2, 0, 11)
Particle 3: pos = (3, 4, 5), vel = (3, 1, 12)


******** Pushing particle velocities back in time by 1/2 dt ********

==== is = 0 ====

Particle 1
Efield = (0.000100, 100.000000, 3.456000)
pos = (1, 2, 3)
vel = (-8.57963, -9.57963e+06, -331062)
KE = 8.09543e-20

Particle 2
Efield = (0.000100, 100.000000, 3.456000)
pos = (2, 3, 4)
vel = (-7.57963, -9.57963e+06, -331061)
KE = 8.96179e-20

Particle 3
Efield = (0.000100, 100.000000, 3.456000)
pos = (3, 4, 5)
vel = (-6.57963, -9.57963e+06, -331060)
KE = 9.94718e-20

Starting loop over time ....


**************** it = 0, dt = 0.001 ******************

==== is = 0 ====

Particle 1
Efield = (0.000100, 100.000000, 3.456000)
pos = (1.01058, 9581.63, 334.082)
vel = (10.5796, 9.57963e+06, 331082)
KE = 7.6833e-14

Particle 2
Efield = (0.000100, 100.000000, 3.456000)
pos = (2.01158, 9582.63, 335.083)
vel = (11.5796, 9.57963e+06, 331083)
KE = 7.6833e-14

Particle 3
Efield = (0.000100, 100.000000, 3.456000)
pos = (3.01258, 9583.63, 336.084)
vel = (12.5796, 9.57963e+06, 331084)
KE = 7.6833e-14

**************** it = 1, dt = 0.001 ******************

==== is = 0 ====

Particle 1
Efield = (0.000100, 100.000000, 3.456000)
pos = (1.04032, 38320.5, 1327.31)
vel = (29.7389, 2.87389e+07, 993226)
KE = 2.30499e-13

Particle 2
Efield = (0.000100, 100.000000, 3.456000)
pos = (2.04232, 38321.5, 1328.31)
vel = (30.7389, 2.87389e+07, 993227)
KE = 2.30499e-13

Particle 3
Efield = (0.000100, 100.000000, 3.456000)
pos = (3.04432, 38322.5, 1329.31)
vel = (31.7389, 2.87389e+07, 993228)
KE = 2.30499e-13

**************** it = 2, dt = 0.001 ******************

==== is = 0 ====

Particle 1
Efield = (0.000100, 100.000000, 3.456000)
pos = (1.08922, 86218.7, 2982.68)
vel = (48.8981, 4.78981e+07, 1.65537e+06)
KE = 1.15249e-12

Particle 2
Efield = (0.000100, 100.000000, 3.456000)
pos = (2.09222, 86219.7, 2983.68)
vel = (49.8981, 4.78981e+07, 1.65537e+06)
KE = 1.15249e-12

Particle 3
Efield = (0.000100, 100.000000, 3.456000)
pos = (3.09522, 86220.7, 2984.68)
vel = (50.8981, 4.78981e+07, 1.65537e+06)
KE = 1.15249e-12

**************** it = 3, dt = 0.001 ******************

==== is = 0 ====

Particle 1
Efield = (0.000100, 100.000000, 3.456000)
pos = (1.15727, 153276, 5300.19)
vel = (68.0574, 6.70574e+07, 2.31751e+06)
KE = 2.68915e-12

Particle 2
Efield = (0.000100, 100.000000, 3.456000)
pos = (2.16127, 153277, 5301.2)
vel = (69.0574, 6.70574e+07, 2.31752e+06)
KE = 2.68915e-12

Particle 3
Efield = (0.000100, 100.000000, 3.456000)
pos = (3.16527, 153278, 5302.2)
vel = (70.0574, 6.70574e+07, 2.31752e+06)
KE = 2.68915e-12

**************** it = 4, dt = 0.001 ******************

==== is = 0 ====

Particle 1
Efield = (0.000100, 100.000000, 3.456000)
pos = (1.24449, 239493, 8279.85)
vel = (87.2167, 8.62167e+07, 2.97966e+06)
KE = 4.84048e-12

Particle 2
Efield = (0.000100, 100.000000, 3.456000)
pos = (2.24949, 239494, 8280.86)
vel = (88.2167, 8.62167e+07, 2.97966e+06)
KE = 4.84048e-12

Particle 3
Efield = (0.000100, 100.000000, 3.456000)
pos = (3.25449, 239495, 8281.86)
vel = (89.2167, 8.62167e+07, 2.97966e+06)
KE = 4.84048e-12

******** Simulation is complete. ********
