Getting simulation parameters... DONE
dt = 1e-06 s, no. of timesteps = 10, no. of species = 3

Getting species properties... DONE
=== Species 0 ===
no. of particles = 2
mass = 9.10938e-31 kg
charge = -1.60218e-19 C

=== Species 1 ===
no. of particles = 3
mass = 1.67339e-27 kg
charge = 1.60218e-19 C

=== Species 2 ===
no. of particles = 4
mass = 3.34588e-27 kg
charge = 4.80653e-19 C

Initializing particle positions... DONE
Initializing particle velocities... DONE

******** Initial particle positions and velocities ********
==== Species 0 ====
Particle 1: pos = (1, 2, 3), vel = (1, -1, 10)
Particle 2: pos = (2, 3, 4), vel = (2, 0, 11)

==== Species 1 ====
Particle 1: pos = (2, 3, 4), vel = (2, 0, 11)
Particle 2: pos = (3, 4, 5), vel = (3, 1, 12)
Particle 3: pos = (4, 5, 6), vel = (4, 2, 13)

==== Species 2 ====
Particle 1: pos = (3, 4, 5), vel = (3, 1, 12)
Particle 2: pos = (4, 5, 6), vel = (4, 2, 13)
Particle 3: pos = (5, 6, 7), vel = (5, 3, 14)
Particle 4: pos = (6, 7, 8), vel = (6, 4, 15)


******** Pushing particle velocities back in time by 1/2 dt ********

==== is = 0 ====

Particle 1
Efield = (0.000100, 100.000000, 3.456000)
pos = (1, 2, 3)
vel = (9.7941, 8.7941e+06, 303934)
KE = 4.04771e-23

Particle 2
Efield = (0.000100, 100.000000, 3.456000)
pos = (2, 3, 4)
vel = (10.7941, 8.7941e+06, 303935)
KE = 4.48089e-23

==== is = 1 ====

Particle 1
Efield = (0.000100, 100.000000, 3.456000)
pos = (2, 3, 4)
vel = (1.99521, -4787.21, -154.446)
KE = 4.48055e-23

Particle 2
Efield = (0.000100, 100.000000, 3.456000)
pos = (3, 4, 5)
vel = (2.99521, -4786.21, -153.446)
KE = 4.97214e-23

Particle 3
Efield = (0.000100, 100.000000, 3.456000)
pos = (4, 5, 6)
vel = (3.99521, -4785.21, -152.446)
KE = 5.50707e-23

==== is = 2 ====

Particle 1
Efield = (0.000100, 100.000000, 3.456000)
pos = (3, 4, 5)
vel = (2.99282, -7181.77, -236.236)
KE = 1.49179e-22

Particle 2
Efield = (0.000100, 100.000000, 3.456000)
pos = (4, 5, 6)
vel = (3.99282, -7180.77, -235.236)
KE = 1.6524e-22

Particle 3
Efield = (0.000100, 100.000000, 3.456000)
pos = (5, 6, 7)
vel = (4.99282, -7179.77, -234.236)
KE = 1.82257e-22

Particle 4
Efield = (0.000100, 100.000000, 3.456000)
pos = (6, 7, 8)
vel = (5.99282, -7178.77, -233.236)
KE = 1.99986e-22

Starting loop over time ....


**************** it = 0, dt = 1e-06 ******************

==== is = 0 ====

Particle 1
Efield = (0.000100, 100.000000, 3.456000)
pos = (0.999992, -6.7941, 2.69609)
vel = (-7.7941, -8.7941e+06, -303914)
KE = 3.52663e-17

Particle 2
Efield = (0.000100, 100.000000, 3.456000)
pos = (1.99999, -5.7941, 3.69609)
vel = (-6.7941, -8.7941e+06, -303913)
KE = 3.52663e-17

==== is = 1 ====

Particle 1
Efield = (0.000100, 100.000000, 3.456000)
pos = (2, 3.00479, 4.00018)
vel = (2.00479, 4787.21, 176.446)
KE = 1.91979e-20

Particle 2
Efield = (0.000100, 100.000000, 3.456000)
pos = (3, 4.00479, 5.00018)
vel = (3.00479, 4788.21, 177.446)
KE = 1.91979e-20

Particle 3
Efield = (0.000100, 100.000000, 3.456000)
pos = (4, 5.00479, 6.00018)
vel = (4.00479, 4789.21, 178.446)
KE = 1.91979e-20

==== is = 2 ====

Particle 1
Efield = (0.000100, 100.000000, 3.456000)
pos = (3, 4.00718, 5.00026)
vel = (3.00718, 7183.77, 260.236)
KE = 8.64138e-20

Particle 2
Efield = (0.000100, 100.000000, 3.456000)
pos = (4, 5.00718, 6.00026)
vel = (4.00718, 7184.77, 261.236)
KE = 8.64138e-20

Particle 3
Efield = (0.000100, 100.000000, 3.456000)
pos = (5.00001, 6.00719, 7.00026)
vel = (5.00718, 7185.77, 262.236)
KE = 8.64139e-20

Particle 4
Efield = (0.000100, 100.000000, 3.456000)
pos = (6.00001, 7.00719, 8.00026)
vel = (6.00718, 7186.77, 263.236)
KE = 8.64139e-20

**************** it = 1, dt = 1e-06 ******************

==== is = 0 ====

Particle 1
Efield = (0.000100, 100.000000, 3.456000)
pos = (0.999967, -33.1764, 1.78432)
vel = (-25.3823, -2.63823e+07, -911762)
KE = 1.05799e-16

Particle 2
Efield = (0.000100, 100.000000, 3.456000)
pos = (1.99997, -32.1764, 2.78433)
vel = (-24.3823, -2.63823e+07, -911761)
KE = 1.05799e-16

==== is = 1 ====

Particle 1
Efield = (0.000100, 100.000000, 3.456000)
pos = (2, 3.01915, 4.00068)
vel = (2.01436, 14361.6, 507.338)
KE = 5.75996e-20

Particle 2
Efield = (0.000100, 100.000000, 3.456000)
pos = (3.00001, 4.01915, 5.00069)
vel = (3.01436, 14362.6, 508.338)
KE = 5.76162e-20

Particle 3
Efield = (0.000100, 100.000000, 3.456000)
pos = (4.00001, 5.01915, 6.00069)
vel = (4.01436, 14363.6, 509.338)
KE = 5.76328e-20

==== is = 2 ====

Particle 1
Efield = (0.000100, 100.000000, 3.456000)
pos = (3.00001, 4.02873, 5.00102)
vel = (3.02155, 21549.3, 756.709)
KE = 2.59309e-19

Particle 2
Efield = (0.000100, 100.000000, 3.456000)
pos = (4.00001, 5.02874, 6.00102)
vel = (4.02155, 21550.3, 757.709)
KE = 2.59359e-19

Particle 3
Efield = (0.000100, 100.000000, 3.456000)
pos = (5.00001, 6.02874, 7.00102)
vel = (5.02155, 21551.3, 758.709)
KE = 2.59409e-19

Particle 4
Efield = (0.000100, 100.000000, 3.456000)
pos = (6.00001, 7.02874, 8.00102)
vel = (6.02155, 21552.3, 759.709)
KE = 2.59459e-19

**************** it = 2, dt = 1e-06 ******************

==== is = 0 ====

Particle 1
Efield = (0.000100, 100.000000, 3.456000)
pos = (0.999924, -77.1469, 0.264713)
vel = (-42.9705, -4.39705e+07, -1.51961e+06)
KE = 5.28995e-16

Particle 2
Efield = (0.000100, 100.000000, 3.456000)
pos = (1.99993, -76.1469, 1.26472)
vel = (-41.9705, -4.39705e+07, -1.51961e+06)
KE = 5.28995e-16

==== is = 1 ====

Particle 1
Efield = (0.000100, 100.000000, 3.456000)
pos = (2.00001, 3.04308, 4.00152)
vel = (2.02394, 23936, 838.229)
KE = 2.87979e-19

Particle 2
Efield = (0.000100, 100.000000, 3.456000)
pos = (3.00001, 4.04309, 5.00153)
vel = (3.02394, 23937, 839.229)
KE = 2.88012e-19

Particle 3
Efield = (0.000100, 100.000000, 3.456000)
pos = (4.00001, 5.04309, 6.00153)
vel = (4.02394, 23938, 840.229)
KE = 2.88045e-19

==== is = 2 ====

Particle 1
Efield = (0.000100, 100.000000, 3.456000)
pos = (3.00001, 4.06465, 5.00227)
vel = (3.03591, 35914.8, 1253.18)
KE = 1.29634e-18

Particle 2
Efield = (0.000100, 100.000000, 3.456000)
pos = (4.00001, 5.06465, 6.00227)
vel = (4.03591, 35915.8, 1254.18)
KE = 1.29644e-18

Particle 3
Efield = (0.000100, 100.000000, 3.456000)
pos = (5.00002, 6.06465, 7.00228)
vel = (5.03591, 35916.8, 1255.18)
KE = 1.29654e-18

Particle 4
Efield = (0.000100, 100.000000, 3.456000)
pos = (6.00002, 7.06466, 8.00228)
vel = (6.03591, 35917.8, 1256.18)
KE = 1.29664e-18

**************** it = 3, dt = 1e-06 ******************

==== is = 0 ====

Particle 1
Efield = (0.000100, 100.000000, 3.456000)
pos = (0.999863, -138.706, -1.86275)
vel = (-60.5587, -6.15587e+07, -2.12746e+06)
KE = 1.23432e-15

Particle 2
Efield = (0.000100, 100.000000, 3.456000)
pos = (1.99987, -137.706, -0.862742)
vel = (-59.5587, -6.15587e+07, -2.12746e+06)
KE = 1.23432e-15

==== is = 1 ====

Particle 1
Efield = (0.000100, 100.000000, 3.456000)
pos = (2.00001, 3.0766, 4.00269)
vel = (2.03351, 33510.5, 1169.12)
KE = 6.71941e-19

Particle 2
Efield = (0.000100, 100.000000, 3.456000)
pos = (3.00001, 4.0766, 5.0027)
vel = (3.03351, 33511.5, 1170.12)
KE = 6.71991e-19

Particle 3
Efield = (0.000100, 100.000000, 3.456000)
pos = (4.00002, 5.0766, 6.0027)
vel = (4.03351, 33512.5, 1171.12)
KE = 6.7204e-19

==== is = 2 ====

Particle 1
Efield = (0.000100, 100.000000, 3.456000)
pos = (3.00001, 4.11493, 5.00402)
vel = (3.05028, 50280.4, 1749.65)
KE = 3.02468e-18

Particle 2
Efield = (0.000100, 100.000000, 3.456000)
pos = (4.00002, 5.11493, 6.00402)
vel = (4.05028, 50281.4, 1750.65)
KE = 3.02483e-18

Particle 3
Efield = (0.000100, 100.000000, 3.456000)
pos = (5.00002, 6.11494, 7.00403)
vel = (5.05028, 50282.4, 1751.65)
KE = 3.02498e-18

Particle 4
Efield = (0.000100, 100.000000, 3.456000)
pos = (6.00002, 7.11494, 8.00403)
vel = (6.05028, 50283.4, 1752.65)
KE = 3.02513e-18

**************** it = 4, dt = 1e-06 ******************

==== is = 0 ====

Particle 1
Efield = (0.000100, 100.000000, 3.456000)
pos = (0.999785, -217.853, -4.59805)
vel = (-78.1469, -7.91469e+07, -2.73531e+06)
KE = 2.22178e-15

Particle 2
Efield = (0.000100, 100.000000, 3.456000)
pos = (1.99979, -216.853, -3.59805)
vel = (-77.1469, -7.91469e+07, -2.73531e+06)
KE = 2.22178e-15

==== is = 1 ====

Particle 1
Efield = (0.000100, 100.000000, 3.456000)
pos = (2.00001, 3.11968, 4.00419)
vel = (2.04308, 43084.9, 1500.01)
KE = 1.20948e-18

Particle 2
Efield = (0.000100, 100.000000, 3.456000)
pos = (3.00002, 4.11969, 5.0042)
vel = (3.04308, 43085.9, 1501.01)
KE = 1.20955e-18

Particle 3
Efield = (0.000100, 100.000000, 3.456000)
pos = (4.00002, 5.11969, 6.0042)
vel = (4.04308, 43086.9, 1502.01)
KE = 1.20962e-18

==== is = 2 ====

Particle 1
Efield = (0.000100, 100.000000, 3.456000)
pos = (3.00002, 4.17957, 5.00627)
vel = (3.06464, 64645.9, 2246.13)
KE = 5.44433e-18

Particle 2
Efield = (0.000100, 100.000000, 3.456000)
pos = (4.00002, 5.17958, 6.00627)
vel = (4.06464, 64646.9, 2247.13)
KE = 5.44452e-18

Particle 3
Efield = (0.000100, 100.000000, 3.456000)
pos = (5.00003, 6.17958, 7.00628)
vel = (5.06464, 64647.9, 2248.13)
KE = 5.44472e-18

Particle 4
Efield = (0.000100, 100.000000, 3.456000)
pos = (6.00003, 7.17959, 8.00628)
vel = (6.06464, 64648.9, 2249.13)
KE = 5.44492e-18

**************** it = 5, dt = 1e-06 ******************

==== is = 0 ====

Particle 1
Efield = (0.000100, 100.000000, 3.456000)
pos = (0.999689, -314.588, -7.94121)
vel = (-95.7351, -9.67351e+07, -3.34316e+06)
KE = 3.49137e-15

Particle 2
Efield = (0.000100, 100.000000, 3.456000)
pos = (1.9997, -313.588, -6.9412)
vel = (-94.7351, -9.67351e+07, -3.34315e+06)
KE = 3.49137e-15

==== is = 1 ====

Particle 1
Efield = (0.000100, 100.000000, 3.456000)
pos = (2.00001, 3.17234, 4.00602)
vel = (2.05266, 52659.3, 1830.9)
KE = 1.90061e-18

Particle 2
Efield = (0.000100, 100.000000, 3.456000)
pos = (3.00002, 4.17235, 5.00603)
vel = (3.05266, 52660.3, 1831.9)
KE = 1.90069e-18

Particle 3
Efield = (0.000100, 100.000000, 3.456000)
pos = (4.00002, 5.17235, 6.00603)
vel = (4.05266, 52661.3, 1832.9)
KE = 1.90078e-18

==== is = 2 ====

Particle 1
Efield = (0.000100, 100.000000, 3.456000)
pos = (3.00002, 4.25859, 5.00901)
vel = (3.07901, 79011.4, 2742.6)
KE = 8.55528e-18

Particle 2
Efield = (0.000100, 100.000000, 3.456000)
pos = (4.00002, 5.25859, 6.00901)
vel = (4.07901, 79012.4, 2743.6)
KE = 8.55553e-18

Particle 3
Efield = (0.000100, 100.000000, 3.456000)
pos = (5.00003, 6.2586, 7.00902)
vel = (5.07901, 79013.4, 2744.6)
KE = 8.55578e-18

Particle 4
Efield = (0.000100, 100.000000, 3.456000)
pos = (6.00004, 7.2586, 8.00903)
vel = (6.07901, 79014.4, 2745.6)
KE = 8.55603e-18

**************** it = 6, dt = 1e-06 ******************

==== is = 0 ====

Particle 1
Efield = (0.000100, 100.000000, 3.456000)
pos = (0.999576, -428.911, -11.8922)
vel = (-113.323, -1.14323e+08, -3.951e+06)
KE = 5.04308e-15

Particle 2
Efield = (0.000100, 100.000000, 3.456000)
pos = (1.99958, -427.911, -10.8922)
vel = (-112.323, -1.14323e+08, -3.951e+06)
KE = 5.04308e-15

==== is = 1 ====

Particle 1
Efield = (0.000100, 100.000000, 3.456000)
pos = (2.00001, 3.23457, 4.00818)
vel = (2.06223, 62233.7, 2161.8)
KE = 2.74532e-18

Particle 2
Efield = (0.000100, 100.000000, 3.456000)
pos = (3.00002, 4.23458, 5.00819)
vel = (3.06223, 62234.7, 2162.8)
KE = 2.74542e-18

Particle 3
Efield = (0.000100, 100.000000, 3.456000)
pos = (4.00003, 5.23459, 6.0082)
vel = (4.06223, 62235.7, 2163.8)
KE = 2.74552e-18

==== is = 2 ====

Particle 1
Efield = (0.000100, 100.000000, 3.456000)
pos = (3.00002, 4.35196, 5.01225)
vel = (3.09338, 93377, 3239.07)
KE = 1.23575e-17

Particle 2
Efield = (0.000100, 100.000000, 3.456000)
pos = (4.00003, 5.35197, 6.01225)
vel = (4.09338, 93378, 3240.07)
KE = 1.23578e-17

Particle 3
Efield = (0.000100, 100.000000, 3.456000)
pos = (5.00004, 6.35198, 7.01226)
vel = (5.09338, 93379, 3241.07)
KE = 1.23581e-17

Particle 4
Efield = (0.000100, 100.000000, 3.456000)
pos = (6.00004, 7.35198, 8.01227)
vel = (6.09338, 93380, 3242.07)
KE = 1.23584e-17

**************** it = 7, dt = 1e-06 ******************

==== is = 0 ====

Particle 1
Efield = (0.000100, 100.000000, 3.456000)
pos = (0.999445, -560.822, -16.4511)
vel = (-130.912, -1.31912e+08, -4.55885e+06)
KE = 6.87693e-15

Particle 2
Efield = (0.000100, 100.000000, 3.456000)
pos = (1.99945, -559.822, -15.4511)
vel = (-129.912, -1.31912e+08, -4.55885e+06)
KE = 6.87693e-15

==== is = 1 ====

Particle 1
Efield = (0.000100, 100.000000, 3.456000)
pos = (2.00002, 3.30638, 4.01068)
vel = (2.07181, 71808.1, 2492.69)
KE = 3.74361e-18

Particle 2
Efield = (0.000100, 100.000000, 3.456000)
pos = (3.00002, 4.30639, 5.01068)
vel = (3.07181, 71809.1, 2493.69)
KE = 3.74373e-18

Particle 3
Efield = (0.000100, 100.000000, 3.456000)
pos = (4.00003, 5.3064, 6.01069)
vel = (4.07181, 71810.1, 2494.69)
KE = 3.74384e-18

==== is = 2 ====

Particle 1
Efield = (0.000100, 100.000000, 3.456000)
pos = (3.00002, 4.45971, 5.01598)
vel = (3.10774, 107742, 3735.55)
KE = 1.68511e-17

Particle 2
Efield = (0.000100, 100.000000, 3.456000)
pos = (4.00003, 5.45971, 6.01599)
vel = (4.10774, 107743, 3736.55)
KE = 1.68515e-17

Particle 3
Efield = (0.000100, 100.000000, 3.456000)
pos = (5.00004, 6.45972, 7.016)
vel = (5.10774, 107744, 3737.55)
KE = 1.68518e-17

Particle 4
Efield = (0.000100, 100.000000, 3.456000)
pos = (6.00005, 7.45973, 8.01601)
vel = (6.10774, 107745, 3738.55)
KE = 1.68522e-17

**************** it = 8, dt = 1e-06 ******************

==== is = 0 ====

Particle 1
Efield = (0.000100, 100.000000, 3.456000)
pos = (0.999297, -710.322, -21.6178)
vel = (-148.5, -1.495e+08, -5.1667e+06)
KE = 8.99291e-15

Particle 2
Efield = (0.000100, 100.000000, 3.456000)
pos = (1.99931, -709.322, -20.6178)
vel = (-147.5, -1.495e+08, -5.1667e+06)
KE = 8.99291e-15

==== is = 1 ====

Particle 1
Efield = (0.000100, 100.000000, 3.456000)
pos = (2.00002, 3.38776, 4.0135)
vel = (2.08138, 81382.5, 2823.58)
KE = 4.89548e-18

Particle 2
Efield = (0.000100, 100.000000, 3.456000)
pos = (3.00003, 4.38777, 5.01351)
vel = (3.08138, 81383.5, 2824.58)
KE = 4.89562e-18

Particle 3
Efield = (0.000100, 100.000000, 3.456000)
pos = (4.00004, 5.38778, 6.01352)
vel = (4.08138, 81384.5, 2825.58)
KE = 4.89575e-18

==== is = 2 ====

Particle 1
Efield = (0.000100, 100.000000, 3.456000)
pos = (3.00003, 4.58181, 5.02022)
vel = (3.12211, 122108, 4232.02)
KE = 2.2036e-17

Particle 2
Efield = (0.000100, 100.000000, 3.456000)
pos = (4.00004, 5.58182, 6.02022)
vel = (4.12211, 122109, 4233.02)
KE = 2.20364e-17

Particle 3
Efield = (0.000100, 100.000000, 3.456000)
pos = (5.00005, 6.58183, 7.02023)
vel = (5.12211, 122110, 4234.02)
KE = 2.20368e-17

Particle 4
Efield = (0.000100, 100.000000, 3.456000)
pos = (6.00005, 7.58184, 8.02024)
vel = (6.12211, 122111, 4235.02)
KE = 2.20372e-17

**************** it = 9, dt = 1e-06 ******************

==== is = 0 ====

Particle 1
Efield = (0.000100, 100.000000, 3.456000)
pos = (0.999131, -877.41, -27.3923)
vel = (-166.088, -1.67088e+08, -5.77455e+06)
KE = 1.1391e-14

Particle 2
Efield = (0.000100, 100.000000, 3.456000)
pos = (1.99914, -876.41, -26.3923)
vel = (-165.088, -1.67088e+08, -5.77455e+06)
KE = 1.1391e-14

==== is = 1 ====

Particle 1
Efield = (0.000100, 100.000000, 3.456000)
pos = (2.00002, 3.47872, 4.01665)
vel = (2.09096, 90956.9, 3154.47)
KE = 6.20094e-18

Particle 2
Efield = (0.000100, 100.000000, 3.456000)
pos = (3.00003, 4.47873, 5.01666)
vel = (3.09096, 90957.9, 3155.47)
KE = 6.20109e-18

Particle 3
Efield = (0.000100, 100.000000, 3.456000)
pos = (4.00004, 5.47874, 6.01667)
vel = (4.09096, 90958.9, 3156.47)
KE = 6.20124e-18

==== is = 2 ====

Particle 1
Efield = (0.000100, 100.000000, 3.456000)
pos = (3.00003, 4.71829, 5.02494)
vel = (3.13647, 136474, 4728.49)
KE = 2.79122e-17

Particle 2
Efield = (0.000100, 100.000000, 3.456000)
pos = (4.00004, 5.7183, 6.02495)
vel = (4.13647, 136475, 4729.49)
KE = 2.79126e-17

Particle 3
Efield = (0.000100, 100.000000, 3.456000)
pos = (5.00005, 6.71831, 7.02496)
vel = (5.13647, 136476, 4730.49)
KE = 2.79131e-17

Particle 4
Efield = (0.000100, 100.000000, 3.456000)
pos = (6.00006, 7.71832, 8.02497)
vel = (6.13647, 136477, 4731.49)
KE = 2.79135e-17

******** Simulation is complete. ********
